^C:\USERS\PHILIP\DROPBOX\CODE\PROJECTS\BIXBITERAYTRACER\BIXBITESOLUTION\BBCOMMON.CPP|C:\USERS\PHILIP\DROPBOX\CODE\PROJECTS\BIXBITERAYTRACER\BIXBITESOLUTION\BBDEBUG.CPP|C:\USERS\PHILIP\DROPBOX\CODE\PROJECTS\BIXBITERAYTRACER\BIXBITESOLUTION\BIXBITE.CPP|C:\USERS\PHILIP\DROPBOX\CODE\PROJECTS\BIXBITERAYTRACER\BIXBITESOLUTION\CAMERA.CPP|C:\USERS\PHILIP\DROPBOX\CODE\PROJECTS\BIXBITERAYTRACER\BIXBITESOLUTION\MAIN.CPP|C:\USERS\PHILIP\DROPBOX\CODE\PROJECTS\BIXBITERAYTRACER\BIXBITESOLUTION\MESH.CPP|C:\USERS\PHILIP\DROPBOX\CODE\PROJECTS\BIXBITERAYTRACER\BIXBITESOLUTION\RAY.CPP|C:\USERS\PHILIP\DROPBOX\CODE\PROJECTS\BIXBITERAYTRACER\BIXBITESOLUTION\RAYTRACER.CPP|C:\USERS\PHILIP\DROPBOX\CODE\PROJECTS\BIXBITERAYTRACER\BIXBITESOLUTION\SCENE.CPP|C:\USERS\PHILIP\DROPBOX\CODE\PROJECTS\BIXBITERAYTRACER\BIXBITESOLUTION\SDLAUXILIARY.CPP|C:\USERS\PHILIP\DROPBOX\CODE\PROJECTS\BIXBITERAYTRACER\BIXBITESOLUTION\SPHERE.CPP|C:\USERS\PHILIP\DROPBOX\CODE\PROJECTS\BIXBITERAYTRACER\BIXBITESOLUTION\TRIANGLE.CPP|C:\USERS\PHILIP\DROPBOX\CODE\PROJECTS\BIXBITERAYTRACER\BIXBITESOLUTION\VERTEX.CPP
C:\USERS\PHILIP\DROPBOX\CODE\PROJECTS\BIXBITERAYTRACER\BIXBITESOLUTION\DEBUG\VC120.PDB
C:\USERS\PHILIP\DROPBOX\CODE\PROJECTS\BIXBITERAYTRACER\BIXBITESOLUTION\DEBUG\VC120.IDB
C:\USERS\PHILIP\DROPBOX\CODE\PROJECTS\BIXBITERAYTRACER\BIXBITESOLUTION\DEBUG\BBCOMMON.OBJ
C:\USERS\PHILIP\DROPBOX\CODE\PROJECTS\BIXBITERAYTRACER\BIXBITESOLUTION\DEBUG\BBDEBUG.OBJ
C:\USERS\PHILIP\DROPBOX\CODE\PROJECTS\BIXBITERAYTRACER\BIXBITESOLUTION\DEBUG\BIXBITE.OBJ
C:\USERS\PHILIP\DROPBOX\CODE\PROJECTS\BIXBITERAYTRACER\BIXBITESOLUTION\DEBUG\CAMERA.OBJ
C:\USERS\PHILIP\DROPBOX\CODE\PROJECTS\BIXBITERAYTRACER\BIXBITESOLUTION\DEBUG\MESH.OBJ
C:\USERS\PHILIP\DROPBOX\CODE\PROJECTS\BIXBITERAYTRACER\BIXBITESOLUTION\DEBUG\RAY.OBJ
C:\USERS\PHILIP\DROPBOX\CODE\PROJECTS\BIXBITERAYTRACER\BIXBITESOLUTION\DEBUG\RAYTRACER.OBJ
C:\USERS\PHILIP\DROPBOX\CODE\PROJECTS\BIXBITERAYTRACER\BIXBITESOLUTION\DEBUG\SCENE.OBJ
C:\USERS\PHILIP\DROPBOX\CODE\PROJECTS\BIXBITERAYTRACER\BIXBITESOLUTION\DEBUG\SPHERE.OBJ
C:\USERS\PHILIP\DROPBOX\CODE\PROJECTS\BIXBITERAYTRACER\BIXBITESOLUTION\DEBUG\TRIANGLE.OBJ
C:\USERS\PHILIP\DROPBOX\CODE\PROJECTS\BIXBITERAYTRACER\BIXBITESOLUTION\DEBUG\MAIN.OBJ
C:\USERS\PHILIP\DROPBOX\CODE\PROJECTS\BIXBITERAYTRACER\BIXBITESOLUTION\DEBUG\SDLAUXILIARY.OBJ
C:\USERS\PHILIP\DROPBOX\CODE\PROJECTS\BIXBITERAYTRACER\BIXBITESOLUTION\DEBUG\VERTEX.OBJ
^C:\USERS\PHILIP\DROPBOX\CODE\PROJECTS\BIXBITERAYTRACER\BIXBITESOLUTION\BBCOMMON.CPP
C:\USERS\PHILIP\DROPBOX\CODE\PROJECTS\BIXBITERAYTRACER\BIXBITESOLUTION\DEBUG\VC120.PDB
^C:\USERS\PHILIP\DROPBOX\CODE\PROJECTS\BIXBITERAYTRACER\BIXBITESOLUTION\BBDEBUG.CPP
C:\USERS\PHILIP\DROPBOX\CODE\PROJECTS\BIXBITERAYTRACER\BIXBITESOLUTION\DEBUG\VC120.PDB
^C:\USERS\PHILIP\DROPBOX\CODE\PROJECTS\BIXBITERAYTRACER\BIXBITESOLUTION\BIXBITE.CPP
C:\USERS\PHILIP\DROPBOX\CODE\PROJECTS\BIXBITERAYTRACER\BIXBITESOLUTION\DEBUG\VC120.PDB
C:\USERS\PHILIP\DROPBOX\CODE\PROJECTS\BIXBITERAYTRACER\BIXBITESOLUTION\DEBUG\BIXBITE.OBJ
C:\USERS\PHILIP\DROPBOX\CODE\PROJECTS\BIXBITERAYTRACER\BIXBITESOLUTION\DEBUG\VC120.IDB
^C:\USERS\PHILIP\DROPBOX\CODE\PROJECTS\BIXBITERAYTRACER\BIXBITESOLUTION\CAMERA.CPP
C:\USERS\PHILIP\DROPBOX\CODE\PROJECTS\BIXBITERAYTRACER\BIXBITESOLUTION\DEBUG\VC120.PDB
^C:\USERS\PHILIP\DROPBOX\CODE\PROJECTS\BIXBITERAYTRACER\BIXBITESOLUTION\MESH.CPP
C:\USERS\PHILIP\DROPBOX\CODE\PROJECTS\BIXBITERAYTRACER\BIXBITESOLUTION\DEBUG\VC120.PDB
^C:\USERS\PHILIP\DROPBOX\CODE\PROJECTS\BIXBITERAYTRACER\BIXBITESOLUTION\RAY.CPP
C:\USERS\PHILIP\DROPBOX\CODE\PROJECTS\BIXBITERAYTRACER\BIXBITESOLUTION\DEBUG\VC120.PDB
^C:\USERS\PHILIP\DROPBOX\CODE\PROJECTS\BIXBITERAYTRACER\BIXBITESOLUTION\RAYTRACER.CPP
C:\USERS\PHILIP\DROPBOX\CODE\PROJECTS\BIXBITERAYTRACER\BIXBITESOLUTION\DEBUG\VC120.PDB
C:\USERS\PHILIP\DROPBOX\CODE\PROJECTS\BIXBITERAYTRACER\BIXBITESOLUTION\DEBUG\VC120.IDB
C:\USERS\PHILIP\DROPBOX\CODE\PROJECTS\BIXBITERAYTRACER\BIXBITESOLUTION\DEBUG\RAYTRACER.OBJ
^C:\USERS\PHILIP\DROPBOX\CODE\PROJECTS\BIXBITERAYTRACER\BIXBITESOLUTION\SCENE.CPP
C:\USERS\PHILIP\DROPBOX\CODE\PROJECTS\BIXBITERAYTRACER\BIXBITESOLUTION\DEBUG\VC120.PDB
^C:\USERS\PHILIP\DROPBOX\CODE\PROJECTS\BIXBITERAYTRACER\BIXBITESOLUTION\SPHERE.CPP
C:\USERS\PHILIP\DROPBOX\CODE\PROJECTS\BIXBITERAYTRACER\BIXBITESOLUTION\DEBUG\VC120.PDB
C:\USERS\PHILIP\DROPBOX\CODE\PROJECTS\BIXBITERAYTRACER\BIXBITESOLUTION\DEBUG\VC120.IDB
C:\USERS\PHILIP\DROPBOX\CODE\PROJECTS\BIXBITERAYTRACER\BIXBITESOLUTION\DEBUG\SPHERE.OBJ
^C:\USERS\PHILIP\DROPBOX\CODE\PROJECTS\BIXBITERAYTRACER\BIXBITESOLUTION\TRIANGLE.CPP
C:\USERS\PHILIP\DROPBOX\CODE\PROJECTS\BIXBITERAYTRACER\BIXBITESOLUTION\DEBUG\VC120.PDB
C:\USERS\PHILIP\DROPBOX\CODE\PROJECTS\BIXBITERAYTRACER\BIXBITESOLUTION\DEBUG\TRIANGLE.OBJ
^C:\USERS\PHILIP\DROPBOX\CODE\PROJECTS\BIXBITERAYTRACER\BIXBITESOLUTION\MAIN.CPP
C:\USERS\PHILIP\DROPBOX\CODE\PROJECTS\BIXBITERAYTRACER\BIXBITESOLUTION\DEBUG\VC120.PDB
^C:\USERS\PHILIP\DROPBOX\CODE\PROJECTS\BIXBITERAYTRACER\BIXBITESOLUTION\SDLAUXILIARY.CPP
C:\USERS\PHILIP\DROPBOX\CODE\PROJECTS\BIXBITERAYTRACER\BIXBITESOLUTION\DEBUG\VC120.PDB
^C:\USERS\PHILIP\DROPBOX\CODE\PROJECTS\BIXBITERAYTRACER\BIXBITESOLUTION\VERTEX.CPP
C:\USERS\PHILIP\DROPBOX\CODE\PROJECTS\BIXBITERAYTRACER\BIXBITESOLUTION\DEBUG\VC120.PDB
^C:\USERS\PHILIP\DROPBOX\CODE\PROJECTS\BIXBITERAYTRACER\BIXBITESOLUTION\BIXBITE.CPP|C:\USERS\PHILIP\DROPBOX\CODE\PROJECTS\BIXBITERAYTRACER\BIXBITESOLUTION\MAIN.CPP|C:\USERS\PHILIP\DROPBOX\CODE\PROJECTS\BIXBITERAYTRACER\BIXBITESOLUTION\RAYTRACER.CPP|C:\USERS\PHILIP\DROPBOX\CODE\PROJECTS\BIXBITERAYTRACER\BIXBITESOLUTION\SCENE.CPP|C:\USERS\PHILIP\DROPBOX\CODE\PROJECTS\BIXBITERAYTRACER\BIXBITESOLUTION\SDLAUXILIARY.CPP
C:\USERS\PHILIP\DROPBOX\CODE\PROJECTS\BIXBITERAYTRACER\BIXBITESOLUTION\DEBUG\VC120.PDB
C:\USERS\PHILIP\DROPBOX\CODE\PROJECTS\BIXBITERAYTRACER\BIXBITESOLUTION\DEBUG\VC120.IDB
C:\USERS\PHILIP\DROPBOX\CODE\PROJECTS\BIXBITERAYTRACER\BIXBITESOLUTION\DEBUG\BIXBITE.OBJ
C:\USERS\PHILIP\DROPBOX\CODE\PROJECTS\BIXBITERAYTRACER\BIXBITESOLUTION\DEBUG\RAYTRACER.OBJ
C:\USERS\PHILIP\DROPBOX\CODE\PROJECTS\BIXBITERAYTRACER\BIXBITESOLUTION\DEBUG\SDLAUXILIARY.OBJ
C:\USERS\PHILIP\DROPBOX\CODE\PROJECTS\BIXBITERAYTRACER\BIXBITESOLUTION\DEBUG\SCENE.OBJ
C:\USERS\PHILIP\DROPBOX\CODE\PROJECTS\BIXBITERAYTRACER\BIXBITESOLUTION\DEBUG\MAIN.OBJ
^C:\USERS\PHILIP\DROPBOX\CODE\PROJECTS\BIXBITERAYTRACER\BIXBITESOLUTION\BIXBITE.CPP|C:\USERS\PHILIP\DROPBOX\CODE\PROJECTS\BIXBITERAYTRACER\BIXBITESOLUTION\MAIN.CPP|C:\USERS\PHILIP\DROPBOX\CODE\PROJECTS\BIXBITERAYTRACER\BIXBITESOLUTION\RAYTRACER.CPP
C:\USERS\PHILIP\DROPBOX\CODE\PROJECTS\BIXBITERAYTRACER\BIXBITESOLUTION\DEBUG\MAIN.OBJ
C:\USERS\PHILIP\DROPBOX\CODE\PROJECTS\BIXBITERAYTRACER\BIXBITESOLUTION\DEBUG\BIXBITE.OBJ
C:\USERS\PHILIP\DROPBOX\CODE\PROJECTS\BIXBITERAYTRACER\BIXBITESOLUTION\DEBUG\RAYTRACER.OBJ
^C:\USERS\PHILIP\DROPBOX\CODE\PROJECTS\BIXBITERAYTRACER\BIXBITESOLUTION\BIXBITE.CPP|C:\USERS\PHILIP\DROPBOX\CODE\PROJECTS\BIXBITERAYTRACER\BIXBITESOLUTION\CAMERA.CPP|C:\USERS\PHILIP\DROPBOX\CODE\PROJECTS\BIXBITERAYTRACER\BIXBITESOLUTION\MAIN.CPP|C:\USERS\PHILIP\DROPBOX\CODE\PROJECTS\BIXBITERAYTRACER\BIXBITESOLUTION\MESH.CPP|C:\USERS\PHILIP\DROPBOX\CODE\PROJECTS\BIXBITERAYTRACER\BIXBITESOLUTION\RAY.CPP|C:\USERS\PHILIP\DROPBOX\CODE\PROJECTS\BIXBITERAYTRACER\BIXBITESOLUTION\RAYTRACER.CPP|C:\USERS\PHILIP\DROPBOX\CODE\PROJECTS\BIXBITERAYTRACER\BIXBITESOLUTION\SCENE.CPP|C:\USERS\PHILIP\DROPBOX\CODE\PROJECTS\BIXBITERAYTRACER\BIXBITESOLUTION\SDLAUXILIARY.CPP|C:\USERS\PHILIP\DROPBOX\CODE\PROJECTS\BIXBITERAYTRACER\BIXBITESOLUTION\SPHERE.CPP|C:\USERS\PHILIP\DROPBOX\CODE\PROJECTS\BIXBITERAYTRACER\BIXBITESOLUTION\TRIANGLE.CPP
C:\USERS\PHILIP\DROPBOX\CODE\PROJECTS\BIXBITERAYTRACER\BIXBITESOLUTION\DEBUG\MAIN.OBJ
C:\USERS\PHILIP\DROPBOX\CODE\PROJECTS\BIXBITERAYTRACER\BIXBITESOLUTION\DEBUG\TRIANGLE.OBJ
C:\USERS\PHILIP\DROPBOX\CODE\PROJECTS\BIXBITERAYTRACER\BIXBITESOLUTION\DEBUG\SPHERE.OBJ
C:\USERS\PHILIP\DROPBOX\CODE\PROJECTS\BIXBITERAYTRACER\BIXBITESOLUTION\DEBUG\SCENE.OBJ
C:\USERS\PHILIP\DROPBOX\CODE\PROJECTS\BIXBITERAYTRACER\BIXBITESOLUTION\DEBUG\SDLAUXILIARY.OBJ
C:\USERS\PHILIP\DROPBOX\CODE\PROJECTS\BIXBITERAYTRACER\BIXBITESOLUTION\DEBUG\RAYTRACER.OBJ
C:\USERS\PHILIP\DROPBOX\CODE\PROJECTS\BIXBITERAYTRACER\BIXBITESOLUTION\DEBUG\RAY.OBJ
C:\USERS\PHILIP\DROPBOX\CODE\PROJECTS\BIXBITERAYTRACER\BIXBITESOLUTION\DEBUG\MESH.OBJ
C:\USERS\PHILIP\DROPBOX\CODE\PROJECTS\BIXBITERAYTRACER\BIXBITESOLUTION\DEBUG\CAMERA.OBJ
C:\USERS\PHILIP\DROPBOX\CODE\PROJECTS\BIXBITERAYTRACER\BIXBITESOLUTION\DEBUG\BIXBITE.OBJ
^C:\USERS\PHILIP\DROPBOX\CODE\PROJECTS\BIXBITERAYTRACER\BIXBITESOLUTION\BIXBITE.CPP|C:\USERS\PHILIP\DROPBOX\CODE\PROJECTS\BIXBITERAYTRACER\BIXBITESOLUTION\RAYTRACER.CPP
C:\USERS\PHILIP\DROPBOX\CODE\PROJECTS\BIXBITERAYTRACER\BIXBITESOLUTION\DEBUG\BIXBITE.OBJ
^C:\USERS\PHILIP\DROPBOX\CODE\PROJECTS\BIXBITERAYTRACER\BIXBITESOLUTION\SPHERE.CPP|C:\USERS\PHILIP\DROPBOX\CODE\PROJECTS\BIXBITERAYTRACER\BIXBITESOLUTION\TRIANGLE.CPP
C:\USERS\PHILIP\DROPBOX\CODE\PROJECTS\BIXBITERAYTRACER\BIXBITESOLUTION\DEBUG\TRIANGLE.OBJ
C:\USERS\PHILIP\DROPBOX\CODE\PROJECTS\BIXBITERAYTRACER\BIXBITESOLUTION\DEBUG\SPHERE.OBJ
^C:\USERS\PHILIP\DROPBOX\CODE\PROJECTS\BIXBITERAYTRACER\BIXBITESOLUTION\BIXBITE.CPP|C:\USERS\PHILIP\DROPBOX\CODE\PROJECTS\BIXBITERAYTRACER\BIXBITESOLUTION\MAIN.CPP|C:\USERS\PHILIP\DROPBOX\CODE\PROJECTS\BIXBITERAYTRACER\BIXBITESOLUTION\RAYTRACER.CPP|C:\USERS\PHILIP\DROPBOX\CODE\PROJECTS\BIXBITERAYTRACER\BIXBITESOLUTION\SCENE.CPP|C:\USERS\PHILIP\DROPBOX\CODE\PROJECTS\BIXBITERAYTRACER\BIXBITESOLUTION\SDLAUXILIARY.CPP|C:\USERS\PHILIP\DROPBOX\CODE\PROJECTS\BIXBITERAYTRACER\BIXBITESOLUTION\SPHERE.CPP
C:\USERS\PHILIP\DROPBOX\CODE\PROJECTS\BIXBITERAYTRACER\BIXBITESOLUTION\DEBUG\MAIN.OBJ
C:\USERS\PHILIP\DROPBOX\CODE\PROJECTS\BIXBITERAYTRACER\BIXBITESOLUTION\DEBUG\SPHERE.OBJ
C:\USERS\PHILIP\DROPBOX\CODE\PROJECTS\BIXBITERAYTRACER\BIXBITESOLUTION\DEBUG\SCENE.OBJ
C:\USERS\PHILIP\DROPBOX\CODE\PROJECTS\BIXBITERAYTRACER\BIXBITESOLUTION\DEBUG\SDLAUXILIARY.OBJ
C:\USERS\PHILIP\DROPBOX\CODE\PROJECTS\BIXBITERAYTRACER\BIXBITESOLUTION\DEBUG\RAYTRACER.OBJ
C:\USERS\PHILIP\DROPBOX\CODE\PROJECTS\BIXBITERAYTRACER\BIXBITESOLUTION\DEBUG\BIXBITE.OBJ
